<?xml version="1.0" encoding="UTF-8" standalone="no"?>
<!-- Created with Inkscape (http://www.inkscape.org/) -->

<svg
   xmlns:dc="http://purl.org/dc/elements/1.1/"
   xmlns:cc="http://creativecommons.org/ns#"
   xmlns:rdf="http://www.w3.org/1999/02/22-rdf-syntax-ns#"
   xmlns:svg="http://www.w3.org/2000/svg"
   xmlns="http://www.w3.org/2000/svg"
   xmlns:sodipodi="http://sodipodi.sourceforge.net/DTD/sodipodi-0.dtd"
   xmlns:inkscape="http://www.inkscape.org/namespaces/inkscape"
   width="23.998409"
   height="23.995304"
   viewBox="0 0 23.99841 23.995304"
   id="svg10043"
   version="1.1"
   inkscape:version="0.92.5 (2060ec1f9f, 2020-04-08)"
   sodipodi:docname="options.svg"
   inkscape:export-filename="gwy_arithmetic-24.png"
   inkscape:export-xdpi="90"
   inkscape:export-ydpi="90">
  <defs
     id="defs10045">
    <filter
       inkscape:collect="always"
       style="color-interpolation-filters:sRGB"
       id="filter841"
       x="-0.036005192"
       width="1.0720104"
       y="-0.03599481"
       height="1.0719896">
      <feGaussianBlur
         inkscape:collect="always"
         stdDeviation="0.33484568"
         id="feGaussianBlur843" />
    </filter>
  </defs>
  <sodipodi:namedview
     id="base"
     pagecolor="#ffffff"
     bordercolor="#666666"
     borderopacity="1.0"
     inkscape:pageopacity="0.0"
     inkscape:pageshadow="2"
     inkscape:zoom="12.624746"
     inkscape:cx="48.122846"
     inkscape:cy="22.432436"
     inkscape:document-units="px"
     inkscape:current-layer="layer1"
     showgrid="false"
     units="px"
     inkscape:window-width="2488"
     inkscape:window-height="1376"
     inkscape:window-x="72"
     inkscape:window-y="27"
     inkscape:window-maximized="1"
     inkscape:object-nodes="true">
    <inkscape:grid
       type="xygrid"
       id="grid1px"
       originx="-3.7779787"
       originy="2.0956868"
       dotted="false"
       snapvisiblegridlinesonly="false"
       spacingx="1.0"
       spacingy="1.0"
       enabled="true"
       visible="true" />
  </sodipodi:namedview>
  <metadata
     id="metadata10048">
    <rdf:RDF>
      <cc:Work
         rdf:about="">
        <dc:format>image/svg+xml</dc:format>
        <dc:type
           rdf:resource="http://purl.org/dc/dcmitype/StillImage" />
        <dc:title />
      </cc:Work>
    </rdf:RDF>
  </metadata>
  <g
     inkscape:label="Layer 1"
     inkscape:groupmode="layer"
     id="layer1"
     transform="translate(-201.14003,-474.43827)">
    <path
       id="path827"
       transform="translate(201.14003,474.43827)"
       d="M 14.332031 0.83007812 C 14.026231 0.83050812 13.962247 0.88913875 13.873047 1.0117188 C 13.783547 1.1347488 13.705172 1.3772119 13.576172 1.6699219 C 13.447162 1.9626319 13.248227 2.3058487 12.873047 2.5742188 C 12.497877 2.8425787 11.966193 3.0318625 11.195312 3.1015625 C 10.281653 3.1841925 9.665035 3.0367719 9.234375 2.7636719 C 8.803715 2.4905819 8.5869019 2.1128331 8.4199219 1.8457031 C 8.2529419 1.5785731 8.1692006 1.4598281 7.9941406 1.4238281 C 7.8190806 1.3878481 7.4180581 1.4496537 6.6738281 1.8398438 C 5.9296281 2.2300437 5.6519312 2.5250231 5.5820312 2.6894531 C 5.5121712 2.8538931 5.56256 2.9898869 5.6875 3.2792969 C 5.81245 3.5686969 6.0006687 3.9629862 5.9804688 4.4726562 C 5.9603187 4.9823162 5.728275 5.5728337 5.140625 6.2773438 C 4.552995 6.9818537 4.013355 7.3146013 3.515625 7.4257812 C 3.017895 7.5369812 2.5980356 7.4226625 2.2910156 7.3515625 C 1.9839956 7.2804625 1.8405063 7.2554156 1.6914062 7.3535156 C 1.5423062 7.4516456 1.3030744 7.7779281 1.0527344 8.5800781 C 0.80235438 9.3822281 0.81405937 9.7854019 0.88085938 9.9511719 C 0.94771937 10.116942 1.0801569 10.178562 1.3730469 10.294922 C 1.6659469 10.411282 2.075835 10.556951 2.421875 10.931641 C 2.767915 11.306331 3.0228687 11.887091 3.1054688 12.800781 C 3.1880988 13.714471 3.0428912 14.331189 2.7695312 14.761719 C 2.4961613 15.192239 2.1170094 15.409422 1.8496094 15.576172 C 1.5822194 15.742932 1.4637344 15.827223 1.4277344 16.001953 C 1.3916944 16.176693 1.4516169 16.576093 1.8417969 17.320312 C 2.2319769 18.064542 2.5268363 18.342109 2.6914062 18.412109 C 2.8559763 18.482129 2.99185 18.433304 3.28125 18.308594 C 3.57064 18.183894 3.9649994 17.995225 4.4746094 18.015625 C 4.9842294 18.035995 5.5748269 18.267819 6.2792969 18.855469 C 6.9837969 19.443119 7.3165444 19.982739 7.4277344 20.480469 C 7.5389444 20.978199 7.4246156 21.398058 7.3535156 21.705078 C 7.2825156 22.012098 7.2573688 22.155588 7.3554688 22.304688 C 7.4535987 22.453778 7.7798912 22.693009 8.5820312 22.943359 C 9.3841613 23.193729 9.7893081 23.182134 9.9550781 23.115234 C 10.120858 23.048374 10.182458 22.915937 10.298828 22.623047 C 10.415198 22.330147 10.558904 21.920259 10.933594 21.574219 C 11.308274 21.228179 11.889074 20.973225 12.802734 20.890625 C 13.716424 20.808005 14.334955 20.955196 14.765625 21.228516 C 15.196295 21.501826 15.413088 21.879104 15.580078 22.146484 C 15.747068 22.413874 15.830859 22.532259 16.005859 22.568359 C 16.180869 22.604429 16.580019 22.544477 17.324219 22.154297 C 18.068419 21.764117 18.346116 21.469128 18.416016 21.304688 C 18.485876 21.140247 18.435497 21.004264 18.310547 20.714844 C 18.185597 20.425434 17.999331 20.031154 18.019531 19.521484 C 18.039681 19.011824 18.269772 18.421297 18.857422 17.716797 C 19.445042 17.012307 19.984752 16.679749 20.482422 16.568359 C 20.980082 16.456949 21.400021 16.571678 21.707031 16.642578 C 22.014031 16.713378 22.157401 16.736972 22.306641 16.638672 C 22.455871 16.540352 22.694963 16.214269 22.945312 15.412109 C 23.195643 14.609949 23.185941 14.206506 23.119141 14.041016 C 23.052341 13.875516 22.919863 13.813386 22.626953 13.697266 C 22.334043 13.581136 21.922272 13.43704 21.576172 13.0625 C 21.230062 12.68796 20.975178 12.107049 20.892578 11.193359 C 20.809948 10.279659 20.957159 9.6611388 21.230469 9.2304688 C 21.503789 8.7997987 21.881057 8.5829956 22.148438 8.4160156 C 22.415828 8.2490256 22.536166 8.1652444 22.572266 7.9902344 C 22.608336 7.8152344 22.54642 7.416085 22.15625 6.671875 C 21.76607 5.927655 21.473034 5.6499781 21.308594 5.5800781 C 21.144154 5.5102181 21.006217 5.5605869 20.716797 5.6855469 C 20.427377 5.8104969 20.035061 5.9986156 19.525391 5.9785156 C 19.015721 5.9583656 18.42323 5.7263319 17.71875 5.1386719 C 17.01423 4.5510119 16.681482 4.0115719 16.570312 3.5136719 C 16.459122 3.0157819 16.573431 2.5943794 16.644531 2.2871094 C 16.715531 1.9798394 16.740778 1.83677 16.642578 1.6875 C 16.544408 1.53823 16.218126 1.2991481 15.416016 1.0488281 C 14.915456 0.89257812 14.562304 0.83058813 14.333984 0.83007812 L 14.332031 0.83007812 z M 12 8.1679688 C 14.11135 8.1679688 15.830078 9.8867069 15.830078 11.998047 C 15.830078 14.109387 14.11135 15.828125 12 15.828125 C 9.88866 15.828135 8.1699219 14.109387 8.1699219 11.998047 C 8.1699219 9.8867069 9.88866 8.1679688 12 8.1679688 z "
       style="color:#000000;clip-rule:nonzero;display:inline;overflow:visible;visibility:visible;color-interpolation:sRGB;color-interpolation-filters:linearRGB;fill:none;fill-opacity:1;stroke:#000000;stroke-width:0.66;stroke-miterlimit:4;stroke-dasharray:none;stroke-opacity:0.9951691;marker:none;color-rendering:auto;image-rendering:auto;shape-rendering:auto;text-rendering:auto;enable-background:accumulate;filter:url(#filter841)" />
    <path
       style="color:#000000;clip-rule:nonzero;display:inline;overflow:visible;visibility:visible;color-interpolation:sRGB;color-interpolation-filters:linearRGB;fill:#ffffff;fill-opacity:1;stroke:#5c99ac;stroke-width:0.66;stroke-miterlimit:4;stroke-dasharray:none;stroke-opacity:0.02415459;marker:none;color-rendering:auto;image-rendering:auto;shape-rendering:auto;text-rendering:auto;enable-background:accumulate"
       d="M 14.332031 0.83007812 C 14.026231 0.83050812 13.962247 0.8891387 13.873047 1.0117188 C 13.783547 1.1347487 13.705172 1.3772119 13.576172 1.6699219 C 13.447162 1.9626319 13.248227 2.3058486 12.873047 2.5742188 C 12.497877 2.8425786 11.966194 3.0318625 11.195312 3.1015625 C 10.281654 3.1841925 9.665035 3.0367719 9.234375 2.7636719 C 8.803715 2.4905819 8.5869019 2.1128331 8.4199219 1.8457031 C 8.2529419 1.5785731 8.1692006 1.4598281 7.9941406 1.4238281 C 7.8190806 1.3878481 7.4180581 1.4496537 6.6738281 1.8398438 C 5.9296281 2.2300436 5.6519312 2.5250231 5.5820312 2.6894531 C 5.5121712 2.8538931 5.56256 2.9898869 5.6875 3.2792969 C 5.81245 3.5686969 6.0006687 3.9629862 5.9804688 4.4726562 C 5.9603187 4.9823162 5.728275 5.5728337 5.140625 6.2773438 C 4.552995 6.9818537 4.013355 7.3146013 3.515625 7.4257812 C 3.017895 7.5369812 2.5980356 7.4226625 2.2910156 7.3515625 C 1.9839956 7.2804625 1.8405064 7.2554156 1.6914062 7.3535156 C 1.5423062 7.4516456 1.3030744 7.7779281 1.0527344 8.5800781 C 0.80235435 9.3822281 0.81405936 9.7854019 0.88085938 9.9511719 C 0.94771936 10.116942 1.0801569 10.178562 1.3730469 10.294922 C 1.6659469 10.411282 2.075835 10.556951 2.421875 10.931641 C 2.767915 11.306331 3.0228686 11.887091 3.1054688 12.800781 C 3.1880987 13.714471 3.0428912 14.331189 2.7695312 14.761719 C 2.4961613 15.192239 2.1170094 15.409422 1.8496094 15.576172 C 1.5822194 15.742932 1.4637344 15.827223 1.4277344 16.001953 C 1.3916944 16.176693 1.4516169 16.576093 1.8417969 17.320312 C 2.2319769 18.064542 2.5268363 18.342109 2.6914062 18.412109 C 2.8559764 18.482129 2.99185 18.433304 3.28125 18.308594 C 3.57064 18.183894 3.9649994 17.995225 4.4746094 18.015625 C 4.9842294 18.035995 5.5748269 18.267819 6.2792969 18.855469 C 6.9837969 19.443119 7.3165444 19.982739 7.4277344 20.480469 C 7.5389444 20.978199 7.4246156 21.398058 7.3535156 21.705078 C 7.2825156 22.012098 7.2573688 22.155587 7.3554688 22.304688 C 7.4535986 22.453778 7.7798913 22.693009 8.5820312 22.943359 C 9.3841614 23.193729 9.7893081 23.182134 9.9550781 23.115234 C 10.120858 23.048374 10.182458 22.915937 10.298828 22.623047 C 10.415198 22.330147 10.558904 21.920259 10.933594 21.574219 C 11.308274 21.228179 11.889074 20.973225 12.802734 20.890625 C 13.716424 20.808005 14.334955 20.955196 14.765625 21.228516 C 15.196295 21.501826 15.413088 21.879104 15.580078 22.146484 C 15.747068 22.413874 15.830859 22.532259 16.005859 22.568359 C 16.180869 22.604429 16.580019 22.544477 17.324219 22.154297 C 18.068419 21.764117 18.346116 21.469128 18.416016 21.304688 C 18.485876 21.140246 18.435497 21.004264 18.310547 20.714844 C 18.185597 20.425434 17.999331 20.031154 18.019531 19.521484 C 18.039681 19.011824 18.269772 18.421297 18.857422 17.716797 C 19.445042 17.012307 19.984752 16.679749 20.482422 16.568359 C 20.980082 16.456949 21.400021 16.571678 21.707031 16.642578 C 22.014031 16.713378 22.157401 16.736972 22.306641 16.638672 C 22.455871 16.540352 22.694963 16.214269 22.945312 15.412109 C 23.195643 14.609949 23.185941 14.206506 23.119141 14.041016 C 23.052341 13.875516 22.919863 13.813386 22.626953 13.697266 C 22.334043 13.581136 21.922272 13.43704 21.576172 13.0625 C 21.230062 12.68796 20.975178 12.107049 20.892578 11.193359 C 20.809948 10.279659 20.957159 9.6611388 21.230469 9.2304688 C 21.503789 8.7997986 21.881057 8.5829956 22.148438 8.4160156 C 22.415828 8.2490256 22.536166 8.1652444 22.572266 7.9902344 C 22.608336 7.8152344 22.54642 7.416085 22.15625 6.671875 C 21.76607 5.927655 21.473034 5.6499781 21.308594 5.5800781 C 21.144154 5.5102181 21.006217 5.5605869 20.716797 5.6855469 C 20.427377 5.8104969 20.035061 5.9986156 19.525391 5.9785156 C 19.015721 5.9583656 18.42323 5.7263319 17.71875 5.1386719 C 17.01423 4.5510119 16.681482 4.0115719 16.570312 3.5136719 C 16.459122 3.0157819 16.573431 2.5943794 16.644531 2.2871094 C 16.715531 1.9798394 16.740778 1.83677 16.642578 1.6875 C 16.544408 1.53823 16.218126 1.2991481 15.416016 1.0488281 C 14.915456 0.89257815 14.562304 0.83058813 14.333984 0.83007812 L 14.332031 0.83007812 z M 12 6.25 C 15.1707 6.25 17.748047 8.8293 17.748047 12 C 17.748047 15.1707 15.1707 17.748047 12 17.748047 C 8.82931 17.748047 6.2519531 15.1707 6.2519531 12 C 6.2519531 8.8293 8.82931 6.25 12 6.25 z M 12 6.9160156 C 9.18924 6.9160156 6.9179688 9.18924 6.9179688 12 C 6.9179688 14.81076 9.18924 17.082031 12 17.082031 C 14.81077 17.082031 17.082031 14.81076 17.082031 12 C 17.082031 9.18924 14.81077 6.9160156 12 6.9160156 z M 12 8.1679688 C 14.11135 8.1679688 15.830078 9.8867068 15.830078 11.998047 C 15.830078 14.109387 14.11135 15.828125 12 15.828125 C 9.88866 15.828135 8.1699219 14.109387 8.1699219 11.998047 C 8.1699219 9.8867068 9.88866 8.1679687 12 8.1679688 z "
       transform="translate(201.14003,474.43827)"
       id="path4236" />
  </g>
</svg>
