<?xml version="1.0" encoding="UTF-8" standalone="no"?>
<svg
   xmlns:dc="http://purl.org/dc/elements/1.1/"
   xmlns:cc="http://creativecommons.org/ns#"
   xmlns:rdf="http://www.w3.org/1999/02/22-rdf-syntax-ns#"
   xmlns:svg="http://www.w3.org/2000/svg"
   xmlns="http://www.w3.org/2000/svg"
   xmlns:sodipodi="http://sodipodi.sourceforge.net/DTD/sodipodi-0.dtd"
   xmlns:inkscape="http://www.inkscape.org/namespaces/inkscape"
   width="23.998409"
   height="23.995304"
   viewBox="0 0 23.99841 23.995304"
   id="svg10043"
   version="1.1"
   sodipodi:docname="paste_demo.svg"
   inkscape:version="0.92.5 (2060ec1f9f, 2020-04-08)">
  <sodipodi:namedview
     pagecolor="#ffffff"
     bordercolor="#666666"
     borderopacity="1"
     objecttolerance="10"
     gridtolerance="10"
     guidetolerance="10"
     inkscape:pageopacity="0"
     inkscape:pageshadow="2"
     inkscape:window-width="2488"
     inkscape:window-height="1376"
     id="namedview17"
     showgrid="false"
     inkscape:zoom="11.656744"
     inkscape:cx="-21.249174"
     inkscape:cy="16.095026"
     inkscape:window-x="72"
     inkscape:window-y="27"
     inkscape:window-maximized="1"
     inkscape:current-layer="g869" />
  <defs
     id="defs10045">
    <filter
       height="1.0677689"
       y="-0.033884431"
       width="1.0767947"
       x="-0.038397332"
       id="filter856"
       style="color-interpolation-filters:sRGB">
      <feGaussianBlur
         id="feGaussianBlur858"
         stdDeviation="0.32944137" />
    </filter>
  </defs>
  <metadata
     id="metadata10048">
    <rdf:RDF>
      <cc:Work
         rdf:about="">
        <dc:format>image/svg+xml</dc:format>
        <dc:type
           rdf:resource="http://purl.org/dc/dcmitype/StillImage" />
        <dc:title />
      </cc:Work>
    </rdf:RDF>
  </metadata>
  <g
     style="stroke-width:1.04100811"
     transform="matrix(0.96044154,0,0,0.96077313,0.47467028,0.47063087)"
     id="g869">
    <g
       id="g2611">
      <rect
         style="color:#000000;display:inline;overflow:visible;visibility:visible;opacity:1;vector-effect:none;fill:none;fill-opacity:1;fill-rule:evenodd;stroke:#05090a;stroke-width:0.69331139;stroke-linecap:round;stroke-linejoin:round;stroke-miterlimit:4;stroke-dasharray:none;stroke-dashoffset:0;stroke-opacity:1;marker:none;marker-start:none;marker-mid:none;marker-end:none;paint-order:normal;filter:url(#filter856);enable-background:accumulate"
         id="rect838"
         width="20.591516"
         height="23.334"
         x="1.7034453"
         y="0.3306509"
         ry="3.1224854"
         rx="3.1235631" />
      <path
         id="rect938"
         transform="matrix(1.0411878,0,0,1.0408284,-0.4942209,-0.489846)"
         d="m 5.1113281,0.7890625 c -1.6619998,0 -3,1.3380001 -3,3 V 20.207031 c 0,1.662 1.3380002,3 3,3 H 18.886719 c 1.662,0 3,-1.338 3,-3 V 3.7890625 c 0,-1.6619999 -1.338,-3 -3,-3 h -2.373047 v 2.3496094 h 3.015625 V 17.794922 c -0.420088,1.697331 -1.828172,2.99388 -3.025391,3.46289 H 4.46875 V 3.1386719 H 7.484375 V 0.7890625 Z"
         style="color:#000000;display:inline;overflow:visible;visibility:visible;opacity:1;vector-effect:none;fill:#ffffff;fill-opacity:1;fill-rule:evenodd;stroke:#ffffff;stroke-width:0.66599995;stroke-linecap:round;stroke-linejoin:round;stroke-miterlimit:4;stroke-dasharray:none;stroke-dashoffset:0;stroke-opacity:0.03381641;marker:none;marker-start:none;marker-mid:none;marker-end:none;paint-order:normal;enable-background:accumulate"
         inkscape:connector-curvature="0" />
      <path
         d="m 8.1939096,16.158914 q 0.5419149,0.541915 0.7332661,1.160933 0.1913604,0.614047 0.014771,1.218203 -0.1740989,0.601665 -0.6763561,1.103923 l -1.4172483,1.417248 -3.5025337,-3.502532 1.2680692,-1.26807 q 0.8851591,-0.885159 1.8174687,-0.922568 0.9298116,-0.03989 1.7625631,0.792863 z M 7.4554399,16.897382 Q 6.8911601,16.333102 6.3019482,16.330683 5.710255,16.32578 5.1657306,16.870305 l -0.5196637,0.519663 2.3689945,2.368995 0.6216045,-0.621604 Q 8.1090822,18.664942 8.0619198,18.060821 8.0147489,17.456692 7.4554399,16.897382 Z"
         style="font-style:normal;font-variant:normal;font-weight:bold;font-stretch:normal;font-size:6.03225756px;line-height:125%;font-family:'Liberation Sans';-inkscape-font-specification:'Liberation Sans Bold';font-variant-ligatures:normal;font-variant-caps:normal;font-variant-numeric:normal;font-feature-settings:normal;text-align:start;letter-spacing:0px;word-spacing:0px;writing-mode:lr-tb;text-anchor:start;fill:#ffffff;fill-opacity:1;stroke:none;stroke-width:0.20820162;stroke-linecap:butt;stroke-linejoin:miter;stroke-miterlimit:4;stroke-dasharray:none;stroke-opacity:1"
         id="path822"
         inkscape:connector-curvature="0" />
      <path
         d="m 10.525749,17.381816 -3.5025341,-3.502534 2.7549443,-2.754945 0.5667698,0.56677 -2.0214554,2.021455 0.8799798,0.87998 1.8697846,-1.869786 0.56677,0.56677 -1.8697851,1.869785 0.9222451,0.922246 2.123404,-2.123404 0.56677,0.566768 z"
         style="font-style:normal;font-variant:normal;font-weight:bold;font-stretch:normal;font-size:6.03225756px;line-height:125%;font-family:'Liberation Sans';-inkscape-font-specification:'Liberation Sans Bold';font-variant-ligatures:normal;font-variant-caps:normal;font-variant-numeric:normal;font-feature-settings:normal;text-align:start;letter-spacing:0px;word-spacing:0px;writing-mode:lr-tb;text-anchor:start;fill:#ffffff;fill-opacity:1;stroke:none;stroke-width:0.20820162;stroke-linecap:butt;stroke-linejoin:miter;stroke-miterlimit:4;stroke-dasharray:none;stroke-opacity:1"
         id="path824"
         inkscape:connector-curvature="0" />
      <path
         d="M 16.831298,11.076265 14.708402,8.9533692 q -0.07207,-0.072074 -0.144182,-0.144182 -0.06954,-0.074607 -0.594149,-0.6437867 0.492155,0.8452165 0.671114,1.1932599 l 1.32231,2.5854076 -0.522145,0.522146 -2.585408,-1.322311 -1.198233,-0.666142 q 0.606511,0.546912 0.79295,0.733352 l 2.122896,2.122896 -0.651437,0.651437 -3.502534,-3.502534 0.982136,-0.9821359 2.585407,1.3322539 0.24363,0.134227 0.589163,0.350468 -0.405157,-0.71844 -1.411792,-2.6997589 0.977155,-0.9771554 3.502533,3.5025333 z"
         style="font-style:normal;font-variant:normal;font-weight:bold;font-stretch:normal;font-size:6.03225756px;line-height:125%;font-family:'Liberation Sans';-inkscape-font-specification:'Liberation Sans Bold';font-variant-ligatures:normal;font-variant-caps:normal;font-variant-numeric:normal;font-feature-settings:normal;text-align:start;letter-spacing:0px;word-spacing:0px;writing-mode:lr-tb;text-anchor:start;fill:#ffffff;fill-opacity:1;stroke:none;stroke-width:0.20820162;stroke-linecap:butt;stroke-linejoin:miter;stroke-miterlimit:4;stroke-dasharray:none;stroke-opacity:1"
         id="path826"
         inkscape:connector-curvature="0" />
      <path
         d="m 19.802983,4.5697235 q 0.546886,0.5468859 0.745697,1.1783451 0.198819,0.6314509 0.01726,1.255485 Q 20.381896,7.6251065 19.844826,8.162177 19.01934,8.9876624 18.064669,8.9728603 17.109998,8.9530787 16.264815,8.1078948 15.422121,7.2652012 15.41726,6.3254518 15.41236,5.385694 16.245339,4.5527462 q 0.832956,-0.8329563 1.777685,-0.823116 0.947211,0.00734 1.779962,0.8400933 z m -0.748414,0.748414 q -0.56677,-0.5667696 -1.155976,-0.6189053 -0.591695,-0.054625 -1.076546,0.4302254 -0.492304,0.4923046 -0.440161,1.0815192 0.04964,0.5867164 0.621387,1.1584568 0.576712,0.5767114 1.183321,0.6363065 0.606611,0.054632 1.081517,-0.4202745 0.492313,-0.4923131 0.435197,-1.0815186 -0.05462,-0.5916957 -0.648739,-1.1858095 z"
         style="font-style:normal;font-variant:normal;font-weight:bold;font-stretch:normal;font-size:6.03225756px;line-height:125%;font-family:'Liberation Sans';-inkscape-font-specification:'Liberation Sans Bold';font-variant-ligatures:normal;font-variant-caps:normal;font-variant-numeric:normal;font-feature-settings:normal;text-align:start;letter-spacing:0px;word-spacing:0px;writing-mode:lr-tb;text-anchor:start;fill:#ffffff;fill-opacity:1;stroke:none;stroke-width:0.20820162;stroke-linecap:butt;stroke-linejoin:miter;stroke-miterlimit:4;stroke-dasharray:none;stroke-opacity:1"
         id="path828"
         inkscape:connector-curvature="0" />
      <path
         inkscape:connector-curvature="0"
         id="path955"
         d="m 16.386756,21.701342 0.64502,-2.63284 3.01895,-0.77386 c -1.67014,2.73558 -2.18029,3.61819 -3.66397,3.4067 z"
         style="opacity:1;vector-effect:none;fill:#ffffff;fill-opacity:1;fill-rule:evenodd;stroke:none;stroke-width:0.68706536;stroke-linecap:butt;stroke-linejoin:miter;stroke-miterlimit:4;stroke-dasharray:none;stroke-dashoffset:0;stroke-opacity:1;marker:none;marker-start:none;marker-mid:none;marker-end:none;paint-order:normal" />
      <rect
         style="color:#000000;display:inline;overflow:visible;visibility:visible;opacity:1;vector-effect:none;fill:#ffffff;fill-opacity:1;fill-rule:evenodd;stroke:none;stroke-width:0.69331139;stroke-linecap:round;stroke-linejoin:round;stroke-miterlimit:4;stroke-dasharray:none;stroke-dashoffset:0;stroke-opacity:0.95169079;marker:none;marker-start:none;marker-mid:none;marker-end:none;paint-order:normal;enable-background:accumulate"
         id="rect1398"
         width="9.4011936"
         height="1.2152181"
         x="7.2984204"
         y="0.33143267" />
      <rect
         y="2.7769728"
         x="7.298419"
         height="1.2152181"
         width="9.4011936"
         id="rect1400"
         style="color:#000000;display:inline;overflow:visible;visibility:visible;opacity:1;vector-effect:none;fill:#ffffff;fill-opacity:1;fill-rule:evenodd;stroke:none;stroke-width:0.69331139;stroke-linecap:round;stroke-linejoin:round;stroke-miterlimit:4;stroke-dasharray:none;stroke-dashoffset:0;stroke-opacity:0.95169079;marker:none;marker-start:none;marker-mid:none;marker-end:none;paint-order:normal;enable-background:accumulate" />
    </g>
  </g>
</svg>
