<?xml version="1.0" encoding="UTF-8" standalone="no"?>
<svg
   xmlns:dc="http://purl.org/dc/elements/1.1/"
   xmlns:cc="http://creativecommons.org/ns#"
   xmlns:rdf="http://www.w3.org/1999/02/22-rdf-syntax-ns#"
   xmlns:svg="http://www.w3.org/2000/svg"
   xmlns="http://www.w3.org/2000/svg"
   xmlns:sodipodi="http://sodipodi.sourceforge.net/DTD/sodipodi-0.dtd"
   xmlns:inkscape="http://www.inkscape.org/namespaces/inkscape"
   version="1.1"
   id="svg10043"
   viewBox="0 0 23.99841 23.995304"
   height="23.995304"
   width="23.998409"
   sodipodi:docname="paste_pgn.svg"
   inkscape:version="0.92.5 (2060ec1f9f, 2020-04-08)">
  <sodipodi:namedview
     pagecolor="#ffffff"
     bordercolor="#666666"
     borderopacity="1"
     objecttolerance="10"
     gridtolerance="10"
     guidetolerance="10"
     inkscape:pageopacity="0"
     inkscape:pageshadow="2"
     inkscape:window-width="2488"
     inkscape:window-height="1376"
     id="namedview1434"
     showgrid="false"
     inkscape:zoom="5.585665"
     inkscape:cx="4.3928944"
     inkscape:cy="-25.068548"
     inkscape:window-x="72"
     inkscape:window-y="27"
     inkscape:window-maximized="1"
     inkscape:current-layer="svg10043" />
  <defs
     id="defs10045">
    <filter
       height="1.0677689"
       y="-0.033884431"
       width="1.0767947"
       x="-0.038397332"
       id="filter840"
       style="color-interpolation-filters:sRGB">
      <feGaussianBlur
         id="feGaussianBlur842"
         stdDeviation="0.32944137" />
    </filter>
    <filter
       height="1.0677689"
       y="-0.033884432"
       width="1.0767947"
       x="-0.038397331"
       id="filter856"
       style="color-interpolation-filters:sRGB">
      <feGaussianBlur
         id="feGaussianBlur858"
         stdDeviation="0.32944137" />
    </filter>
  </defs>
  <metadata
     id="metadata10048">
    <rdf:RDF>
      <cc:Work
         rdf:about="">
        <dc:format>image/svg+xml</dc:format>
        <dc:type
           rdf:resource="http://purl.org/dc/dcmitype/StillImage" />
        <dc:title />
      </cc:Work>
    </rdf:RDF>
  </metadata>
  <g
     id="g2041"
     transform="translate(24.069824,-0.05476341)">
    <text
       transform="scale(0.99994511,1.0000549)"
       id="text1002"
       y="13.256446"
       x="-19.202007"
       style="font-style:normal;font-variant:normal;font-weight:bold;font-stretch:normal;font-size:7.688097px;line-height:125%;font-family:'Liberation Sans';-inkscape-font-specification:'Liberation Sans Bold';font-variant-ligatures:normal;font-variant-caps:normal;font-variant-numeric:normal;font-feature-settings:normal;text-align:start;letter-spacing:0px;word-spacing:0px;writing-mode:lr-tb;text-anchor:start;fill:#ffffff;fill-opacity:1;stroke:none;stroke-width:0.99999988px;stroke-linecap:butt;stroke-linejoin:miter;stroke-opacity:1"
       xml:space="preserve"><tspan
         style="font-style:normal;font-variant:normal;font-weight:bold;font-stretch:normal;font-family:'Liberation Sans';-inkscape-font-specification:'Liberation Sans Bold';fill:#ffffff;stroke-width:0.99999988px"
         y="13.256446"
         x="-19.202007"
         id="tspan1000">pgn</tspan></text>
    <rect
       style="color:#000000;display:inline;overflow:visible;visibility:visible;opacity:1;vector-effect:none;fill:none;fill-opacity:1;fill-rule:evenodd;stroke:#05090a;stroke-width:0.69331139;stroke-linecap:round;stroke-linejoin:round;stroke-miterlimit:4;stroke-dasharray:none;stroke-dashoffset:0;stroke-opacity:1;marker:none;marker-start:none;marker-mid:none;marker-end:none;paint-order:normal;filter:url(#filter856);enable-background:accumulate"
       id="rect838"
       width="20.591516"
       height="23.334"
       x="1.7034453"
       y="0.3306509"
       ry="3.1224854"
       rx="3.1235631"
       transform="matrix(0.96044154,0,0,0.96077313,-23.595154,0.52539428)" />
    <path
       id="rect938-3"
       d="m -18.958497,0.84382588 c -1.661999,0 -3,1.33800012 -3,3.00000002 V 20.261795 c 0,1.662 1.338001,3 3,3 h 13.7753912 c 1.662,0 3,-1.338 3,-3 V 3.8438259 c 0,-1.6619999 -1.338,-3.00000002 -3,-3.00000002 H -7.556153 V 3.1934353 h 3.0156252 V 17.849686 c -0.420088,1.697331 -1.8281722,2.99388 -3.0253912,3.46289 H -19.601075 V 3.1934353 h 3.015625 V 0.84382588 Z"
       style="color:#000000;display:inline;overflow:visible;visibility:visible;opacity:1;vector-effect:none;fill:#ffffff;fill-opacity:1;fill-rule:evenodd;stroke:#ffffff;stroke-width:0.66599995;stroke-linecap:round;stroke-linejoin:round;stroke-miterlimit:4;stroke-dasharray:none;stroke-dashoffset:0;stroke-opacity:0.03381641;marker:none;marker-start:none;marker-mid:none;marker-end:none;paint-order:normal;enable-background:accumulate"
       inkscape:connector-curvature="0" />
    <path
       inkscape:connector-curvature="0"
       id="path955-6"
       d="m -7.856633,21.375461 0.619504,-2.529562 2.8995252,-0.743504 c -1.6040722,2.628272 -2.0940422,3.47626 -3.5190292,3.273066 z"
       style="opacity:1;vector-effect:none;fill:#ffffff;fill-opacity:1;fill-rule:evenodd;stroke:none;stroke-width:0.66000003;stroke-linecap:butt;stroke-linejoin:miter;stroke-miterlimit:4;stroke-dasharray:none;stroke-dashoffset:0;stroke-opacity:1;marker:none;marker-start:none;marker-mid:none;marker-end:none;paint-order:normal" />
    <rect
       style="color:#000000;display:inline;overflow:visible;visibility:visible;opacity:1;vector-effect:none;fill:#ffffff;fill-opacity:1;fill-rule:evenodd;stroke:none;stroke-width:0.66600001;stroke-linecap:round;stroke-linejoin:round;stroke-miterlimit:4;stroke-dasharray:none;stroke-dashoffset:0;stroke-opacity:0.95169079;marker:none;marker-start:none;marker-mid:none;marker-end:none;paint-order:normal;enable-background:accumulate"
       id="rect1398"
       width="9.0292969"
       height="1.1675489"
       x="-16.585447"
       y="0.84382588" />
    <rect
       y="3.1934352"
       x="-16.585449"
       height="1.1675489"
       width="9.0292969"
       id="rect1400"
       style="color:#000000;display:inline;overflow:visible;visibility:visible;opacity:1;vector-effect:none;fill:#ffffff;fill-opacity:1;fill-rule:evenodd;stroke:none;stroke-width:0.66600001;stroke-linecap:round;stroke-linejoin:round;stroke-miterlimit:4;stroke-dasharray:none;stroke-dashoffset:0;stroke-opacity:0.95169079;marker:none;marker-start:none;marker-mid:none;marker-end:none;paint-order:normal;enable-background:accumulate" />
  </g>
</svg>
